[gd_scene load_steps=10 format=2]

[ext_resource path="res://Assets/black.png" type="Texture" id=1]
[ext_resource path="res://Assets/room 5.jpg" type="Texture" id=2]
[ext_resource path="res://Scenes/Player.tscn" type="PackedScene" id=3]
[ext_resource path="res://Assets/game_tilemap.tres" type="TileSet" id=4]
[ext_resource path="res://Scenes/Door.tscn" type="PackedScene" id=5]
[ext_resource path="res://Scripts/room5.gd" type="Script" id=6]
[ext_resource path="res://Scenes/darkness.tscn" type="PackedScene" id=7]
[ext_resource path="res://Scenes/Hide.tscn" type="PackedScene" id=8]
[ext_resource path="res://Scenes/Monster.tscn" type="PackedScene" id=9]

[node name="room5" type="Node2D"]
script = ExtResource( 6 )

[node name="TileMap" type="TileMap" parent="."]
visible = false
tile_set = ExtResource( 4 )
cell_size = Vector2( 50, 64 )
format = 1
tile_data = PoolIntArray( -524278, 1, 0, -524277, 1, 0, -458742, 1, 0, -393206, 1, 0, -327670, 1, 0, -262134, 1, 0, -196599, 1, 0, -196570, 1, 0, -131036, 1, 0, -131035, 1, 0, -131034, 1, 0, -65502, 1, 0, -65501, 1, 0, -65499, 1, 0, 14, 1, 0, 19, 1, 65536, 26, 1, 0, 32, 1, 0, 33, 1, 0, 37, 1, 0, 65549, 1, 65536, 65550, 1, 0, 65551, 1, 65536, 65552, 1, 65536, 65553, 1, 65536, 65554, 1, 65536, 65555, 1, 65536, 65561, 1, 0, 65562, 1, 0, 65567, 1, 0, 65568, 1, 0, 65569, 1, 0, 65571, 1, 0, 65572, 1, 0, 65574, 1, 0, 65585, 1, 0, 131075, 1, 0, 131076, 1, 0, 131084, 1, 0, 131085, 1, 0, 131086, 1, 0, 131087, 1, 65536, 131088, 1, 65536, 131089, 1, 65536, 131090, 1, 65536, 131091, 1, 65536, 131096, 1, 0, 131097, 1, 0, 131098, 1, 0, 131099, 1, 0, 131100, 1, 0, 131103, 1, 0, 131104, 1, 0, 131105, 1, 0, 131106, 1, 0, 131107, 1, 0, 131110, 1, 0, 131112, 1, 0, 131120, 1, 0, 131121, 1, 0, 196609, 1, 0, 196610, 1, 0, 196611, 1, 0, 196612, 1, 0, 196613, 1, 0, 196614, 1, 0, 196615, 1, 0, 196616, 1, 0, 196617, 1, 0, 196619, 1, 0, 196620, 1, 0, 196621, 1, 0, 196622, 1, 0, 196623, 1, 65536, 196625, 1, 65536, 196626, 1, 65536, 196631, 1, 0, 196632, 1, 0, 196633, 1, 0, 196634, 1, 0, 196636, 1, 0, 196638, 1, 0, 196639, 1, 0, 196640, 1, 0, 196641, 1, 0, 196642, 1, 0, 196643, 1, 0, 196644, 1, 0, 196646, 1, 0, 196647, 1, 0, 196648, 1, 0, 196649, 1, 0, 196655, 1, 0, 196656, 1, 0, 196657, 1, 0, 196658, 1, 0, 327678, 0, 1, 262145, 1, 0, 262146, 1, 0, 262147, 1, 0, 262148, 1, 0, 262149, 1, 0, 262150, 1, 0, 262151, 1, 0, 262152, 1, 0, 262153, 1, 0, 262154, 1, 0, 262155, 1, 0, 262156, 1, 0, 262157, 1, 0, 262158, 1, 0, 262159, 1, 65536, 262160, 1, 65536, 262161, 1, 65536, 262162, 1, 65536, 262163, 1, 0, 262167, 0, 1, 262168, 1, 0, 262169, 1, 0, 262170, 1, 0, 262171, 1, 0, 262172, 1, 0, 262173, 1, 0, 262174, 1, 0, 262175, 1, 0, 262176, 1, 0, 262177, 1, 0, 262178, 1, 0, 262180, 1, 0, 262181, 1, 0, 262182, 1, 0, 262183, 1, 0, 262184, 1, 0, 262185, 1, 0, 262191, 1, 0, 262192, 1, 0, 262193, 1, 0, 262194, 1, 0, 262195, 1, 0, 393214, 0, 1, 327681, 1, 0, 327682, 1, 0, 327683, 1, 0, 327684, 1, 0, 327685, 1, 0, 327686, 1, 0, 327687, 1, 0, 327688, 1, 0, 327689, 1, 0, 327690, 1, 0, 327691, 1, 0, 327692, 1, 0, 327693, 1, 0, 327694, 1, 0, 327695, 1, 65536, 327696, 1, 65536, 327697, 1, 65536, 327698, 1, 0, 327699, 1, 0, 327702, 1, 0, 327703, 0, 1, 327704, 1, 0, 327705, 1, 0, 327706, 1, 0, 327707, 1, 0, 327708, 1, 0, 327709, 1, 0, 327710, 1, 0, 327711, 1, 0, 327712, 1, 0, 327713, 1, 0, 327715, 1, 0, 327716, 1, 0, 327717, 1, 0, 327718, 1, 0, 327719, 1, 0, 327720, 1, 0, 327721, 1, 0, 327722, 1, 0, 327727, 1, 0, 327728, 1, 0, 327729, 1, 0, 327730, 1, 0, 327731, 1, 0, 393217, 1, 0, 393218, 1, 0, 393219, 1, 0, 393220, 1, 0, 393221, 1, 0, 393222, 1, 0, 393223, 1, 0, 393224, 1, 0, 393226, 1, 0, 393227, 1, 0, 393228, 1, 0, 393229, 1, 0, 393230, 1, 0, 393231, 1, 65536, 393233, 1, 0, 393234, 1, 0, 393235, 1, 65536, 393238, 1, 0, 393239, 1, 0, 393240, 1, 0, 393241, 1, 0, 393242, 1, 0, 393243, 1, 0, 393244, 1, 0, 393245, 1, 0, 393246, 1, 0, 393247, 1, 0, 393248, 1, 65536, 393251, 1, 0, 393252, 1, 0, 393253, 1, 0, 393254, 1, 0, 393255, 1, 0, 393256, 1, 0, 393257, 1, 0, 393258, 1, 0, 393262, 1, 0, 393263, 1, 0, 393264, 1, 0, 393265, 1, 0, 393266, 1, 0, 393267, 1, 0, 524287, 0, 1, 458752, 0, 1, 458753, 0, 1, 458754, 0, 1, 458755, 0, 1, 458756, 0, 1, 458757, 0, 1, 458758, 1, 0, 458759, 0, 1, 458760, 0, 1, 458761, 0, 1, 458762, 0, 1, 458763, 0, 1, 458764, 0, 1, 458765, 0, 1, 458766, 1, 0, 458767, 0, 1, 458768, 0, 1, 458769, 0, 1, 458770, 0, 1, 458771, 0, 1, 458772, 0, 1, 458773, 0, 1, 458774, 0, 1, 458775, 1, 0, 458776, 1, 0, 458777, 1, 0, 458778, 1, 0, 458779, 1, 0, 458780, 1, 0, 458781, 1, 0, 458782, 1, 0, 458783, 1, 0, 458784, 1, 0, 458787, 1, 0, 458788, 1, 0, 458789, 1, 0, 458790, 1, 0, 458791, 1, 0, 458792, 1, 0, 458793, 1, 0, 458794, 1, 0, 458795, 1, 0, 458798, 1, 0, 458799, 1, 0, 458800, 1, 0, 458801, 1, 0, 458802, 1, 0, 458803, 1, 0, 524288, 1, 0, 524290, 1, 0, 524291, 1, 0, 524294, 0, 1, 524295, 0, 1, 524296, 0, 1, 524297, 0, 1, 524298, 1, 0, 524299, 1, 0, 524302, 1, 65536, 524303, 1, 0, 524304, 1, 0, 524305, 1, 65536, 524306, 1, 65536, 524307, 1, 65536, 524309, 1, 0, 524310, 1, 0, 524311, 1, 0, 524312, 1, 0, 524313, 1, 0, 524314, 1, 0, 524315, 1, 0, 524316, 1, 0, 524317, 1, 0, 524319, 1, 0, 524323, 1, 0, 524324, 1, 0, 524325, 1, 0, 524326, 1, 0, 524327, 1, 0, 524329, 1, 0, 524330, 1, 0, 524331, 1, 0, 524333, 1, 0, 524334, 1, 0, 524335, 1, 0, 524336, 1, 0, 524337, 1, 0, 524338, 1, 0, 524339, 1, 0, 524340, 1, 0, 589834, 1, 0, 589838, 1, 65536, 589839, 1, 65536, 589840, 1, 65536, 589841, 1, 65536, 589842, 1, 65536, 589843, 1, 65536, 589844, 1, 65536, 589845, 1, 0, 589846, 1, 0, 589847, 1, 0, 589848, 1, 0, 589849, 1, 0, 589850, 1, 0, 589851, 1, 0, 589852, 1, 0, 589853, 1, 0, 589860, 1, 0, 589861, 1, 0, 589863, 1, 0, 589867, 1, 0, 589868, 1, 0, 589869, 1, 0, 589870, 1, 0, 589871, 1, 0, 589872, 1, 0, 589873, 1, 0, 589874, 1, 0, 589875, 1, 0, 589876, 1, 0, 589882, 1, 0, 589883, 1, 0, 589884, 1, 0, 655370, 1, 65536, 655373, 1, 65536, 655374, 1, 65536, 655375, 1, 65536, 655376, 1, 65536, 655377, 1, 65536, 655378, 1, 65536, 655381, 1, 65536, 655382, 1, 0, 655383, 1, 0, 655384, 1, 0, 655385, 1, 0, 655386, 1, 0, 655387, 1, 0, 655388, 1, 0, 655396, 1, 0, 655397, 1, 0, 655399, 1, 0, 655403, 1, 0, 655404, 1, 0, 655405, 1, 0, 655406, 1, 0, 655407, 1, 0, 655408, 1, 0, 655409, 1, 0, 655410, 1, 0, 655411, 1, 0, 655412, 1, 0, 655418, 1, 0, 655419, 1, 0, 655420, 1, 0, 720906, 1, 65536, 720909, 1, 65536, 720910, 1, 65536, 720911, 1, 65536, 720912, 1, 65536, 720913, 1, 65536, 720914, 1, 65536, 720915, 1, 65536, 720916, 1, 65536, 720922, 1, 0, 720923, 1, 0, 720924, 1, 0, 720941, 1, 0, 720942, 1, 0, 720943, 1, 0, 720944, 1, 0, 720945, 1, 0, 720946, 1, 0, 720954, 1, 0, 720955, 1, 0, 720956, 1, 0, 786442, 1, 65536, 786445, 1, 65536, 786446, 1, 65536, 786447, 1, 65536, 786448, 1, 65536, 786449, 1, 65536, 786457, 1, 0, 786458, 1, 0, 786477, 1, 0, 786478, 1, 0, 786479, 1, 0, 786481, 1, 0, 786482, 1, 0, 786490, 1, 0, 851980, 1, 65536, 851981, 1, 65536, 851982, 1, 65536, 851983, 1, 65536, 851993, 1, 0, 852012, 1, 0, 852013, 1, 0, 852014, 1, 0, 852015, 1, 0, 852018, 1, 0, 917549, 1, 0, 917550, 1, 0 )

[node name="room 5" type="Sprite" parent="."]
show_behind_parent = true
position = Vector2( 599.046, 281.744 )
texture = ExtResource( 2 )

[node name="black" type="Sprite" parent="room 5"]
show_behind_parent = true
position = Vector2( -38.3758, 44.9599 )
scale = Vector2( 3.95951, 2.99353 )
texture = ExtResource( 1 )

[node name="Door6" parent="." instance=ExtResource( 5 )]
position = Vector2( 851.628, 336.38 )
sceneName = "room6"

[node name="Door7" parent="." instance=ExtResource( 5 )]
position = Vector2( 320.362, 325.701 )
sceneName = "room7"

[node name="Door2" parent="." instance=ExtResource( 5 )]
position = Vector2( 29.9865, 349.27 )

[node name="Door10" parent="." instance=ExtResource( 5 )]
position = Vector2( 1171.99, 352.398 )
sceneName = "Win"

[node name="darkness" parent="." instance=ExtResource( 7 )]

[node name="Hiding Spot" parent="." instance=ExtResource( 8 )]
position = Vector2( 576.427, 481.29 )

[node name="Monster" parent="." instance=ExtResource( 9 )]
position = Vector2( 263.323, 394.355 )

[node name="Player" parent="." instance=ExtResource( 3 )]
position = Vector2( 113.979, 399.699 )
speed = 300

[node name="Camera2D" type="Camera2D" parent="Player"]
position = Vector2( 6.91525, 46.5386 )
current = true
limit_top = 0
limit_bottom = 0
