[gd_scene load_steps=3 format=2]

[ext_resource path="res://Assets/sounds/251990__beansqueso31__opendoor.wav" type="AudioStream" id=1]
[ext_resource path="res://Assets/sounds/408741__straget__alarm-clock-ticking.wav" type="AudioStream" id=2]

[node name="AudioStreamPlayer" type="AudioStreamPlayer"]
stream = ExtResource( 1 )
volume_db = -10.0

[node name="BGM" type="AudioStreamPlayer" parent="."]
stream = ExtResource( 2 )
autoplay = true
