[gd_resource type="DynamicFont" load_steps=2 format=2]

[ext_resource path="res://Assets/Mulish-VariableFont_wght.ttf" type="DynamicFontData" id=1]

[resource]
size = 120
outline_color = Color( 1, 0, 0, 1 )
font_data = ExtResource( 1 )
